%YAML 1.1
%TAG !u! tag:unity3d.com,2011:
--- !u!1045 &1
EditorBuildSettings:
  m_ObjectHideFlags: 0
  serializedVersion: 2
  m_Scenes:
  - enabled: 1
    path: Assets/ootii/_Demos/MessageDispatcher/Scenes/2. Sending Data/Scene.unity
    guid: 6350b7702f6dfb74c81a06e5008b0de4
  m_configObjects: {}
